<?xml version="1.0" encoding="UTF-8" standalone="no"?>
<!-- Created with Inkscape (http://www.inkscape.org/) -->

<svg
   xmlns:dc="http://purl.org/dc/elements/1.1/"
   xmlns:cc="http://creativecommons.org/ns#"
   xmlns:rdf="http://www.w3.org/1999/02/22-rdf-syntax-ns#"
   xmlns:svg="http://www.w3.org/2000/svg"
   xmlns="http://www.w3.org/2000/svg"
   xmlns:sodipodi="http://sodipodi.sourceforge.net/DTD/sodipodi-0.dtd"
   xmlns:inkscape="http://www.inkscape.org/namespaces/inkscape"
   width="23"
   height="25"
   viewBox="0 0 6.0854167 6.6145834"
   version="1.1"
   id="svg8"
   inkscape:version="0.92.3 (2405546, 2018-03-11)"
   sodipodi:docname="SingleGlyphTemplate.svg">
  <defs
     id="defs2" />
  <sodipodi:namedview
     id="base"
     pagecolor="#ffffff"
     bordercolor="#666666"
     borderopacity="1.0"
     inkscape:pageopacity="0.0"
     inkscape:pageshadow="2"
     inkscape:zoom="22.4"
     inkscape:cx="14.910381"
     inkscape:cy="15.78244"
     inkscape:document-units="mm"
     inkscape:current-layer="layer1"
     showgrid="false"
     units="px"
     inkscape:snap-global="false"
     inkscape:window-width="1920"
     inkscape:window-height="1061"
     inkscape:window-x="0"
     inkscape:window-y="0"
     inkscape:window-maximized="1" />
  <metadata
     id="metadata5">
    <rdf:RDF>
      <cc:Work
         rdf:about="">
        <dc:format>image/svg+xml</dc:format>
        <dc:type
           rdf:resource="http://purl.org/dc/dcmitype/StillImage" />
        <dc:title></dc:title>
      </cc:Work>
    </rdf:RDF>
  </metadata>
  <g
     inkscape:label="Layer 1"
     inkscape:groupmode="layer"
     id="layer1"
     transform="translate(0,-290.3854)">
    <path
       inkscape:tile-y0="-11596.057"
       inkscape:tile-x0="10120.663"
       sodipodi:nodetypes="cczccssczcsc"
       style="color:#000000;clip-rule:nonzero;display:inline;overflow:visible;visibility:visible;opacity:1;isolation:auto;mix-blend-mode:normal;color-interpolation:sRGB;color-interpolation-filters:linearRGB;solid-color:#000000;solid-opacity:1;fill:none;fill-opacity:1;fill-rule:nonzero;stroke:#ff0e0e;stroke-width:0.0828675;stroke-linecap:round;stroke-linejoin:round;stroke-miterlimit:4;stroke-dasharray:none;stroke-dashoffset:0;stroke-opacity:0.09019608;marker:none;color-rendering:auto;image-rendering:auto;shape-rendering:auto;text-rendering:auto;enable-background:accumulate"
       d="m 0.88170812,296.18581 c 0.25203688,-0.43731 0.66151068,-0.85575 1.01774208,-0.90307 0,0 0.020223,1.02221 1.0432094,1.02221 1.0229795,0 1.0224762,-0.98954 1.0224762,-0.98954 0.351787,0 0.9574109,0.0831 1.0025277,1.03853 0.1761291,0.83692 0.9331451,0.25989 0.4848433,-0.20427 -0.1427712,-0.14782 -0.3933714,-0.69762 -0.3530344,-0.92154 0.3553144,-1.97221 1.2278082,-4.53567 0.087245,-4.62171 -0.019904,0.78794 -0.7685599,0.99719 -1.2238562,0.99719 -0.4552938,0 -1.0814989,-0.21554 -1.1805542,-0.84384 -0.4148645,0 -2.45129681,3.18635 -2.45129681,4.21425 0,0.60888 0.22278747,0.94066 0.55069793,1.21179 z"
       id="use5208"
       inkscape:connector-curvature="0" />
  </g>
</svg>
